Chapter 4 Markdown & Tidyverse | Data Analysis Coursebook
…
fertility_df <- read_csv("DP_LIVE_22092021161631568.csv")

fertility_df
#> # A tibble: 3,193 x 8
#>    LOCATION INDICATOR SUBJECT MEASURE   FREQUENCY  TIME Value `Flag Codes`
#>    <chr>    <chr>     <chr>   <chr>     <chr>     <dbl> <dbl> <lgl>       
#>  1 AUS      FERTILITY TOT     CHD_WOMAN A          1960  3.45 NA          
#>  2 AUS      FERTILITY TOT     CHD_WOMAN A          1961  3.55 NA          
#>  3 AUS      FERTILITY TOT     CHD_WOMAN A          1962  3.43 NA          
#>  4 AUS      FERTILITY TOT     CHD_WOMAN A          1963  3.34 NA          
#>  5 AUS      FERTILITY TOT     CHD_WOMAN A          1964  3.15 NA          
#>  6 AUS      FERTILITY TOT     CHD_WOMAN A          1965  2.97 NA          
#>  7 AUS      FERTILITY TOT     CHD_WOMAN A          1966  2.89 NA          
#>  8 AUS      FERTILITY TOT     CHD_WOMAN A          1967  2.85 NA          
#>  9 AUS      FERTILITY TOT     CHD_WOMAN A          1968  2.89 NA          
#> 10 AUS      FERTILITY TOT     CHD_WOMAN A          1969  2.89 NA          
#> # ... with 3,183 more rows

count(fertility_df, LOCATION)
#> # A tibble: 54 x 2
#>    LOCATION     n
#>    <chr>    <int>
#>  1 ARG         60
#>  2 AUS         60
#>  3 AUT         61
#>  4 BEL         60
#>  5 BGR         60
#>  6 BRA         60
#>  7 CAN         60
#>  8 CHE         61
#>  9 CHL         60
#> 10 CHN         60
#> # ... with 44 more rows
…
fertility_df %>% 
  count(SUBJECT)
#> # A tibble: 1 x 2
#>   SUBJECT     n
#>   <chr>   <int>
#> 1 TOT      3193

fertility_df %>% 
  count(LOCATION, sort = TRUE)
#> # A tibble: 54 x 2
#>    LOCATION     n
#>    <chr>    <int>
#>  1 AUT         61
#>  2 CHE         61
#>  3 CZE         61
#>  4 DNK         61
#>  5 EST         61
#>  6 FIN         61
#>  7 FRA         61
#>  8 LUX         61
#>  9 NOR         61
#> 10 NZL         61
#> # ... with 44 more rows

fertility_df %>% 
  count(LOCATION, TIME)
#> # A tibble: 3,193 x 3
#>    LOCATION  TIME     n
#>    <chr>    <dbl> <int>
#>  1 ARG       1960     1
#>  2 ARG       1961     1
#>  3 ARG       1962     1
#>  4 ARG       1963     1
#>  5 ARG       1964     1
#>  6 ARG       1965     1
#>  7 ARG       1966     1
#>  8 ARG       1967     1
#>  9 ARG       1968     1
#> 10 ARG       1969     1
#> # ... with 3,183 more rows
…
gdp_df %>% 
  count(FREQUENCY)
#> # A tibble: 2 x 2
#>   FREQUENCY     n
#>   <chr>     <int>
#> 1 A          4093
#> 2 Q         25984

gdp_df %>% 
  filter(SUBJECT == "TOT" & MEASURE == "PC_CHGPY" & FREQUENCY != "A") %>% 
  mutate(TIME = lubridate::yq(TIME)) %>% 
  filter(TIME == max(TIME)) %>% 
  arrange(desc(Value)) %>% 
  select(geo = LOCATION, gdp_change = Value)
#> # A tibble: 49 x 2
#>    geo   gdp_change
#>    <chr>      <dbl>
#>  1 GBR         22.2
#>  2 TUR         21.4
#>  3 IRL         21.1
#>  4 IND         20.9
#>  5 ESP         19.8
#>  6 MEX         19.5
#>  7 FRA         18.7
#>  8 HUN         17.7
#>  9 NZL         17.4
#> 10 ITA         17.3
#> # ... with 39 more rows

filter: filter the rows, where the condition(s) are TRUE select: select the specified columns mutate: specify a new column or change an existing one

gdp_df %>% 
  select(1)
#> # A tibble: 30,077 x 1
#>    LOCATION
#>    <chr>   
#>  1 OECD    
#>  2 OECD    
#>  3 OECD    
#>  4 OECD    
#>  5 OECD    
#>  6 OECD    
#>  7 OECD    
#>  8 OECD    
#>  9 OECD    
#> 10 OECD    
#> # ... with 30,067 more rows

gdp_df %>% 
  select(-1)
#> # A tibble: 30,077 x 7
#>    INDICATOR SUBJECT MEASURE  FREQUENCY TIME  Value `Flag Codes`
#>    <chr>     <chr>   <chr>    <chr>     <chr> <dbl> <chr>       
#>  1 QGDP      TOT     PC_CHGPP A         1962   5.70 <NA>        
#>  2 QGDP      TOT     PC_CHGPP A         1963   5.20 <NA>        
#>  3 QGDP      TOT     PC_CHGPP A         1964   6.38 <NA>        
#>  4 QGDP      TOT     PC_CHGPP A         1965   5.35 <NA>        
#>  5 QGDP      TOT     PC_CHGPP A         1966   5.75 <NA>        
#>  6 QGDP      TOT     PC_CHGPP A         1967   3.96 <NA>        
#>  7 QGDP      TOT     PC_CHGPP A         1968   5.92 <NA>        
#>  8 QGDP      TOT     PC_CHGPP A         1969   5.57 <NA>        
#>  9 QGDP      TOT     PC_CHGPP A         1970   3.94 <NA>        
#> 10 QGDP      TOT     PC_CHGPP A         1971   3.70 <NA>        
#> # ... with 30,067 more rows

gdp_df %>% 
  select(1:2)
#> # A tibble: 30,077 x 2
#>    LOCATION INDICATOR
#>    <chr>    <chr>    
#>  1 OECD     QGDP     
#>  2 OECD     QGDP     
#>  3 OECD     QGDP     
#>  4 OECD     QGDP     
#>  5 OECD     QGDP     
#>  6 OECD     QGDP     
#>  7 OECD     QGDP     
#>  8 OECD     QGDP     
#>  9 OECD     QGDP     
#> 10 OECD     QGDP     
#> # ... with 30,067 more rows

gdp_df %>% 
  select(LOCATION:TIME)
#> # A tibble: 30,077 x 6
#>    LOCATION INDICATOR SUBJECT MEASURE  FREQUENCY TIME 
#>    <chr>    <chr>     <chr>   <chr>    <chr>     <chr>
#>  1 OECD     QGDP      TOT     PC_CHGPP A         1962 
#>  2 OECD     QGDP      TOT     PC_CHGPP A         1963 
#>  3 OECD     QGDP      TOT     PC_CHGPP A         1964 
#>  4 OECD     QGDP      TOT     PC_CHGPP A         1965 
#>  5 OECD     QGDP      TOT     PC_CHGPP A         1966 
#>  6 OECD     QGDP      TOT     PC_CHGPP A         1967 
#>  7 OECD     QGDP      TOT     PC_CHGPP A         1968 
#>  8 OECD     QGDP      TOT     PC_CHGPP A         1969 
#>  9 OECD     QGDP      TOT     PC_CHGPP A         1970 
#> 10 OECD     QGDP      TOT     PC_CHGPP A         1971 
#> # ... with 30,067 more rows

gdp_df %>% 
  select(TIME, LOCATION, everything())
#> # A tibble: 30,077 x 8
#>    TIME  LOCATION INDICATOR SUBJECT MEASURE  FREQUENCY Value `Flag Codes`
#>    <chr> <chr>    <chr>     <chr>   <chr>    <chr>     <dbl> <chr>       
#>  1 1962  OECD     QGDP      TOT     PC_CHGPP A          5.70 <NA>        
#>  2 1963  OECD     QGDP      TOT     PC_CHGPP A          5.20 <NA>        
#>  3 1964  OECD     QGDP      TOT     PC_CHGPP A          6.38 <NA>        
#>  4 1965  OECD     QGDP      TOT     PC_CHGPP A          5.35 <NA>        
#>  5 1966  OECD     QGDP      TOT     PC_CHGPP A          5.75 <NA>        
#>  6 1967  OECD     QGDP      TOT     PC_CHGPP A          3.96 <NA>        
#>  7 1968  OECD     QGDP      TOT     PC_CHGPP A          5.92 <NA>        
#>  8 1969  OECD     QGDP      TOT     PC_CHGPP A          5.57 <NA>        
#>  9 1970  OECD     QGDP      TOT     PC_CHGPP A          3.94 <NA>        
#> 10 1971  OECD     QGDP      TOT     PC_CHGPP A          3.70 <NA>        
#> # ... with 30,067 more rows

gdp_df %>% 
  mutate(g = 1 + Value/100)
#> # A tibble: 30,077 x 9
#>    LOCATION INDICATOR SUBJECT MEASURE  FREQUENCY TIME  Value `Flag Codes`     g
#>    <chr>    <chr>     <chr>   <chr>    <chr>     <chr> <dbl> <chr>        <dbl>
#>  1 OECD     QGDP      TOT     PC_CHGPP A         1962   5.70 <NA>          1.06
#>  2 OECD     QGDP      TOT     PC_CHGPP A         1963   5.20 <NA>          1.05
#>  3 OECD     QGDP      TOT     PC_CHGPP A         1964   6.38 <NA>          1.06
#>  4 OECD     QGDP      TOT     PC_CHGPP A         1965   5.35 <NA>          1.05
#>  5 OECD     QGDP      TOT     PC_CHGPP A         1966   5.75 <NA>          1.06
#>  6 OECD     QGDP      TOT     PC_CHGPP A         1967   3.96 <NA>          1.04
#>  7 OECD     QGDP      TOT     PC_CHGPP A         1968   5.92 <NA>          1.06
#>  8 OECD     QGDP      TOT     PC_CHGPP A         1969   5.57 <NA>          1.06
#>  9 OECD     QGDP      TOT     PC_CHGPP A         1970   3.94 <NA>          1.04
#> 10 OECD     QGDP      TOT     PC_CHGPP A         1971   3.70 <NA>          1.04
#> # ... with 30,067 more rows

gdp_df %>% 
  mutate(Value = 1 + Value/100)
#> # A tibble: 30,077 x 8
#>    LOCATION INDICATOR SUBJECT MEASURE  FREQUENCY TIME  Value `Flag Codes`
#>    <chr>    <chr>     <chr>   <chr>    <chr>     <chr> <dbl> <chr>       
#>  1 OECD     QGDP      TOT     PC_CHGPP A         1962   1.06 <NA>        
#>  2 OECD     QGDP      TOT     PC_CHGPP A         1963   1.05 <NA>        
#>  3 OECD     QGDP      TOT     PC_CHGPP A         1964   1.06 <NA>        
#>  4 OECD     QGDP      TOT     PC_CHGPP A         1965   1.05 <NA>        
#>  5 OECD     QGDP      TOT     PC_CHGPP A         1966   1.06 <NA>        
#>  6 OECD     QGDP      TOT     PC_CHGPP A         1967   1.04 <NA>        
#>  7 OECD     QGDP      TOT     PC_CHGPP A         1968   1.06 <NA>        
#>  8 OECD     QGDP      TOT     PC_CHGPP A         1969   1.06 <NA>        
#>  9 OECD     QGDP      TOT     PC_CHGPP A         1970   1.04 <NA>        
#> 10 OECD     QGDP      TOT     PC_CHGPP A         1971   1.04 <NA>        
#> # ... with 30,067 more rows

gdp_df %>% 
  filter(FREQUENCY != "A") %>% 
  mutate(
    TIME = lubridate::yq(TIME),
    Value = 1 + Value/100
  )
#> # A tibble: 25,984 x 8
#>    LOCATION INDICATOR SUBJECT MEASURE  FREQUENCY TIME       Value `Flag Codes`
#>    <chr>    <chr>     <chr>   <chr>    <chr>     <date>     <dbl> <chr>       
#>  1 DEU      QGDP      TOT     PC_CHGPY Q         1961-01-01 1.07  E           
#>  2 DEU      QGDP      TOT     PC_CHGPY Q         1961-04-01 1.05  E           
#>  3 DEU      QGDP      TOT     PC_CHGPY Q         1961-07-01 1.04  E           
#>  4 DEU      QGDP      TOT     PC_CHGPY Q         1961-10-01 1.03  E           
#>  5 DEU      QGDP      TOT     PC_CHGPY Q         1962-01-01 1.03  E           
#>  6 DEU      QGDP      TOT     PC_CHGPY Q         1962-04-01 1.05  E           
#>  7 DEU      QGDP      TOT     PC_CHGPY Q         1962-07-01 1.05  E           
#>  8 DEU      QGDP      TOT     PC_CHGPY Q         1962-10-01 1.05  E           
#>  9 DEU      QGDP      TOT     PC_CHGPY Q         1963-01-01 0.996 E           
#> 10 DEU      QGDP      TOT     PC_CHGPY Q         1963-04-01 1.03  E           
#> # ... with 25,974 more rows

summary

eurostat::search_eurostat("birth")
#> # A tibble: 275 x 8
#>    title   code  type  `last update of~ `last table str~ `data start` `data end`
#>    <chr>   <chr> <chr> <chr>            <chr>            <chr>        <chr>     
#>  1 Live b~ demo~ data~ 30.06.2021       23.02.2021       1990         2019      
#>  2 Live b~ demo~ data~ 01.07.2021       01.07.2021       2013         2019      
#>  3 Live b~ demo~ data~ 30.06.2021       23.02.2021       1990         2019      
#>  4 Popula~ cens~ data~ 26.08.2015       08.02.2021       2011         2011      
#>  5 Popula~ cens~ data~ 26.08.2015       08.02.2021       2011         2011      
#>  6 Popula~ cens~ data~ 26.08.2015       08.02.2021       2011         2011      
#>  7 Popula~ cens~ data~ 26.08.2015       08.02.2021       2011         2011      
#>  8 Popula~ cens~ data~ 26.08.2015       08.02.2021       2011         2011      
#>  9 Popula~ lfst~ data~ 10.09.2021       27.04.2021       1999         2020      
#> 10 Activi~ lfst~ data~ 10.09.2021       27.04.2021       1999         2020      
#> # ... with 265 more rows, and 1 more variable: values <chr>

livebirth_eu_df <- eurostat::get_eurostat("demo_r_fagec")

livebirth_eu_df %>% 
  filter(str_length(geo) != 2) %>% 
  filter(age != "TOTAL" & time == "2019-01-01") %>% 
  filter(!(age %in% c("UNK", "Y_GE45", "Y_GE48", "Y_GE50", "Y_LT16"))) %>% 
  group_by(age) %>% 
  summarise(values = sum(values))
#> # A tibble: 36 x 2
#>    age    values
#>    <chr>   <dbl>
#>  1 Y10-14   5337
#>  2 Y15     13440
#>  3 Y16     30049
#>  4 Y17     60282
#>  5 Y18    106563
#>  6 Y19    172655
#>  7 Y20    244849
#>  8 Y21    308539
#>  9 Y22    378984
#> 10 Y23    450972
#> # ... with 26 more rows
…
chain_index <- function(x) {
  scales::percent(x/lag(x)-1, accuracy = .01)
}

4.4 Pivot longer/wider

fertility_df %>% 
  select(geo = LOCATION, time = TIME, fertility = Value) %>% 
  pivot_wider(names_from = "geo", values_from = "fertility") %>% 
  mutate_at(-1, chain_index) %>% 
  pivot_longer(-1, names_to = "geo", values_to = "fertility")
#> # A tibble: 3,294 x 3
#>     time geo   fertility
#>    <dbl> <chr> <chr>    
#>  1  1960 AUS   <NA>     
#>  2  1960 AUT   <NA>     
#>  3  1960 BEL   <NA>     
#>  4  1960 CAN   <NA>     
#>  5  1960 CZE   <NA>     
#>  6  1960 DNK   <NA>     
#>  7  1960 FIN   <NA>     
#>  8  1960 FRA   <NA>     
#>  9  1960 DEU   <NA>     
#> 10  1960 GRC   <NA>     
#> # ... with 3,284 more rows

fertility_df %>% 
  select(geo = LOCATION, time = TIME, fertility = Value) %>% 
  arrange(time) %>% 
  group_by(geo) %>% 
  group_modify(~ mutate(.x, fertility_growth = chain_index(fertility)), .keep = F)
#> # A tibble: 3,193 x 4
#> # Groups:   geo [54]
#>    geo    time fertility fertility_growth
#>    <chr> <dbl>     <dbl> <chr>           
#>  1 ARG    1960      3.11 <NA>            
#>  2 ARG    1961      3.1  -0.32%          
#>  3 ARG    1962      3.09 -0.32%          
#>  4 ARG    1963      3.08 -0.32%          
#>  5 ARG    1964      3.07 -0.32%          
#>  6 ARG    1965      3.06 -0.33%          
#>  7 ARG    1966      3.05 -0.33%          
#>  8 ARG    1967      3.05 0.00%           
#>  9 ARG    1968      3.05 0.00%           
#> 10 ARG    1969      3.06 0.33%           
#> # ... with 3,183 more rows
…
