Chapter 6 Introduction to simulation | Data Analysis Coursebook
…
6.5 Case Study

How does the kurtosis change if the sample size or the standard deviation changes?

tibble(n = 10^(0:5)) %>% 
  crossing(s = 2^(0:5)) # match all possible combination
#> # A tibble: 36 x 2
#>        n     s
#>    <dbl> <dbl>
#>  1     1     1
#>  2     1     2
#>  3     1     4
#>  4     1     8
#>  5     1    16
#>  6     1    32
#>  7    10     1
#>  8    10     2
#>  9    10     4
#> 10    10     8
#> # ... with 26 more rows

tibble(n = 10^(1:5)) %>% 
  crossing(s = 2^(0:5)) %>%  # match all possible combination
  mutate(
    data = map2(n, s, ~ rnorm(n = .x, sd = .y)) # generate the data
  )
#> # A tibble: 30 x 3
#>        n     s data       
#>    <dbl> <dbl> <list>     
#>  1    10     1 <dbl [10]> 
#>  2    10     2 <dbl [10]> 
#>  3    10     4 <dbl [10]> 
#>  4    10     8 <dbl [10]> 
#>  5    10    16 <dbl [10]> 
#>  6    10    32 <dbl [10]> 
#>  7   100     1 <dbl [100]>
#>  8   100     2 <dbl [100]>
#>  9   100     4 <dbl [100]>
#> 10   100     8 <dbl [100]>
#> # ... with 20 more rows

tibble(n = 10^(1:5)) %>% 
  crossing(s = 2^(0:5)) %>%  # match all possible combination
  mutate(
    data = map2(n, s, ~ rnorm(n = .x, sd = .y)),
    kurt = map_dbl(data, moments::kurtosis) # calculate the kurtosis of the data
  )
#> # A tibble: 30 x 4
#>        n     s data         kurt
#>    <dbl> <dbl> <list>      <dbl>
#>  1    10     1 <dbl [10]>   1.61
#>  2    10     2 <dbl [10]>   3.43
#>  3    10     4 <dbl [10]>   2.01
#>  4    10     8 <dbl [10]>   1.75
#>  5    10    16 <dbl [10]>   2.56
#>  6    10    32 <dbl [10]>   2.27
#>  7   100     1 <dbl [100]>  2.67
#>  8   100     2 <dbl [100]>  3.02
#>  9   100     4 <dbl [100]>  2.60
#> 10   100     8 <dbl [100]>  2.65
#> # ... with 20 more rows
…
