Chapter 4 Webscraping with R | Data Analysis Coursebook
…
From now on, all we need is a column with links and titles, but these are nested. The first cell of the url_to_cars column contains more than a hundred links. This nesting option opens a lot of new doors in the process of data manipulation. Use the unnest function to extract these columns.

cars_add_df %>% 
  select(url_to_cars, ad_title) %>% 
  unnest()
#> # A tibble: 517 x 2
#>    url_to_cars                               ad_title                           
#>    <chr>                                     <chr>                              
#>  1 <NA>                                      P                                  
#>  2 https://www.hasznaltauto.hu/szemelyauto/~ SSANGYONG KORANDO 1.5 Turbo e-XGI ~
#>  3 https://www.hasznaltauto.hu/szemelyauto/~ SSANGYONG KORANDO 1.5 Turbo e-XGI ~
#>  4 <NA>                                      P                                  
#>  5 https://www.hasznaltauto.hu/szemelyauto/~ CITROEN GRAND C4 SPACETOURER C4Spa~
#>  6 https://www.hasznaltauto.hu/szemelyauto/~ CITROEN GRAND C4 SPACETOURER C4Spa~
#>  7 <NA>                                      P                                  
#>  8 https://www.hasznaltauto.hu/szemelyauto/~ SUZUKI SWIFT 1.2 Dualjet Hybrid GL+
#>  9 https://www.hasznaltauto.hu/szemelyauto/~ SUZUKI SWIFT 1.2 Dualjet Hybrid GL+
#> 10 <NA>                                      P                                  
#> # ... with 507 more rows

We can see that the nodes selection was not entirely perfect (usually not), as there were no matching elements or duplications left.

But now we can still remove the items that don’t fit here. Fortunately, there is no link behind these, and if all columns are the same, unique4 will be our service.

cars_add_df <- cars_add_df %>% 
  select(url_to_cars, ad_title) %>% 
  unnest() %>% 
  na.omit() %>% # remove rows where url_to_cars is missing (NA)
  unique() # delete duplications

cars_add_df
#> # A tibble: 239 x 2
#>    url_to_cars                             ad_title                             
#>    <chr>                                   <chr>                                
#>  1 https://www.hasznaltauto.hu/szemelyaut~ SSANGYONG KORANDO 1.5 Turbo e-XGI St~
#>  2 https://www.hasznaltauto.hu/szemelyaut~ CITROEN GRAND C4 SPACETOURER C4Space~
#>  3 https://www.hasznaltauto.hu/szemelyaut~ SUZUKI SWIFT 1.2 Dualjet Hybrid GL+  
#>  4 https://www.hasznaltauto.hu/szemelyaut~ PEUGEOT 208 1.2 PureTech Active Acti~
#>  5 https://www.hasznaltauto.hu/szemelyaut~ OPEL COMBO Life 1.2 T Enjoy 2.0t XL ~
#>  6 https://www.hasznaltauto.hu/szemelyaut~ OPEL INSIGNIA Grand Sport 1.4 T Busi~
#>  7 https://www.hasznaltauto.hu/szemelyaut~ OPEL ZAFIRA LIFE 1.5 D Business Edit~
#>  8 https://www.hasznaltauto.hu/szemelyaut~ SUZUKI VITARA 1.4 Hybrid GL+         
#>  9 https://www.hasznaltauto.hu/szemelyaut~ SUZUKI IGNIS 1.2 Hybrid GL+          
#> 10 https://www.hasznaltauto.hu/szemelyaut~ CITROEN C5 AIRCROSS 1.2 PureTech Feel
#> # ... with 229 more rows
…
Figure 4.6: A random example of car ad.

You can see that the data is tabulated on the page. This is the best option for us, as you don’t have to search for the item ID on the page one by one (as before with the ad title). You can simply apply the html_table function to a loaded page, which collects all the tables on the it.

car_url <- "https://www.hasznaltauto.hu/szemelyauto/renault/zoe/renault_zoe_ze_q90_41_kwh_intens_aut_kmgari-szkonyv-17447302"

info_tables <- read_html(car_url) %>% 
  html_table(fill = TRUE)

info_tables
#> [[1]]
#> # A tibble: 31 x 2
#>    `Ár, költségek`                        `Ár, költségek`                       
#>    <chr>                                  <chr>                                 
#>  1 "Vételár:"                             "5 199 000 Ft"                        
#>  2 "Vételár EUR:"                         "€ 14 265"                            
#>  3 "Finanszírozás kalkulátor            ~ "Finanszírozás kalkulátor            ~
#>  4 "Általános adatok"                     "Általános adatok"                    
#>  5 "Évjárat:"                             "2018/4"                              
#>  6 "Állapot:"                             "Megkímélt"                           
#>  7 "Kivitel:"                             "Ferdehátú"                           
#>  8 "Alvázszám:"                           "Elérhető autó-előélet alvázszám alap~
#>  9 "Ellenőrzöm"                           "Ellenőrzöm"                          
#> 10 "Finanszírozás"                        "Finanszírozás"                       
#> # ... with 21 more rows

What is the type of info_tables? Since it collects all the tables it can find from the page, it is a list of data frames.

I will reveal that in some cases we will see that there are multiple tables on a page (certain types of info are taken separately) and we want to avoid an irrelevant single column table causing an error (step 1).

Our goal is to be able to gather all the data about the car into a single two-column table. To join all two column tables (step 3), they must also have the same name (step 2).

info_tables %>% 
  keep(~ ncol(.) == 2) %>%  # keep tables that have 2 columns
  map(set_names, "x", "y") %>%  # set the names to x and y for each table
  bind_rows() # join the tables to one sinle table
#> # A tibble: 31 x 2
#>    x                                      y                                     
#>    <chr>                                  <chr>                                 
#>  1 "Vételár:"                             "5 199 000 Ft"                        
#>  2 "Vételár EUR:"                         "€ 14 265"                            
#>  3 "Finanszírozás kalkulátor            ~ "Finanszírozás kalkulátor            ~
#>  4 "Általános adatok"                     "Általános adatok"                    
#>  5 "Évjárat:"                             "2018/4"                              
#>  6 "Állapot:"                             "Megkímélt"                           
#>  7 "Kivitel:"                             "Ferdehátú"                           
#>  8 "Alvázszám:"                           "Elérhető autó-előélet alvázszám alap~
#>  9 "Ellenőrzöm"                           "Ellenőrzöm"                          
#> 10 "Finanszírozás"                        "Finanszírozás"                       
#> # ... with 21 more rows

We see that this works, the output now is one single table. Lets use this method on all the links. To do this, we need to write a function.

get_data <- function(url_to_car) {
  url_to_car %>% 
    read_html() %>% 
    html_table(fill = TRUE) %>% 
    keep(~ ncol(.) == 2) %>% 
    map(~ set_names(., "x", "y")) %>% 
    bind_rows()
}

get_data(car_url)
#> # A tibble: 31 x 2
#>    x                                      y                                     
#>    <chr>                                  <chr>                                 
#>  1 "Vételár:"                             "5 199 000 Ft"                        
#>  2 "Vételár EUR:"                         "€ 14 265"                            
#>  3 "Finanszírozás kalkulátor            ~ "Finanszírozás kalkulátor            ~
#>  4 "Általános adatok"                     "Általános adatok"                    
#>  5 "Évjárat:"                             "2018/4"                              
#>  6 "Állapot:"                             "Megkímélt"                           
#>  7 "Kivitel:"                             "Ferdehátú"                           
#>  8 "Alvázszám:"                           "Elérhető autó-előélet alvázszám alap~
#>  9 "Ellenőrzöm"                           "Ellenőrzöm"                          
#> 10 "Finanszírozás"                        "Finanszírozás"                       
#> # ... with 21 more rows
…
Currently, our small table is also nested in a cell. Expand it!

cars_add_df %>% 
  sample_n(size = 3) %>% # remove this line at the end if everything is fine
  mutate(
    data = map(url_to_cars, get_data)
  ) %>% 
  unnest()
#> # A tibble: 107 x 4
#>    url_to_cars                  ad_title                  x        y            
#>    <chr>                        <chr>                     <chr>    <chr>        
#>  1 https://www.hasznaltauto.hu~ MERCEDES-AMG E 43 4Matic~ Vételár: 14 290 000 Ft
#>  2 https://www.hasznaltauto.hu~ MERCEDES-AMG E 43 4Matic~ Vételár~ € 39 209     
#>  3 https://www.hasznaltauto.hu~ MERCEDES-AMG E 43 4Matic~ Általán~ Általános ad~
#>  4 https://www.hasznaltauto.hu~ MERCEDES-AMG E 43 4Matic~ Évjárat: 2017/6       
#>  5 https://www.hasznaltauto.hu~ MERCEDES-AMG E 43 4Matic~ Állapot: Kitűnő       
#>  6 https://www.hasznaltauto.hu~ MERCEDES-AMG E 43 4Matic~ Kivitel: Sedan        
#>  7 https://www.hasznaltauto.hu~ MERCEDES-AMG E 43 4Matic~ Alvázsz~ Elérhető aut~
#>  8 https://www.hasznaltauto.hu~ MERCEDES-AMG E 43 4Matic~ Ellenőr~ Ellenőrzöm   
#>  9 https://www.hasznaltauto.hu~ MERCEDES-AMG E 43 4Matic~ Jármű a~ Jármű adatok 
#> 10 https://www.hasznaltauto.hu~ MERCEDES-AMG E 43 4Matic~ Kilomét~ 112 651 km   
#> # ... with 97 more rows
…
The last thing that causes this headache for this task is the special characters used in the Hungarian language. The janitor, on the other hand, handles this smoothly as well.

We can now download all the cars if we wish!

cars_data_df <- cars_add_df %>% 
  mutate(
    data = map(url_to_cars, get_data)
  ) %>% 
  unnest() %>% 
  pivot_wider(names_from = "x", values_from = "y") %>% 
  janitor::clean_names()

cars_data_df
#> # A tibble: 239 x 63
#>    url_to_cars  ad_title   vetelar vetelar_eur finanszirozas_k~ altalanos_adatok
#>    <chr>        <chr>      <chr>   <chr>       <chr>            <chr>           
#>  1 https://www~ SSANGYONG~ 6 999 ~ € 19 204    "Finanszírozás ~ Általános adatok
#>  2 https://www~ CITROEN G~ 7 780 ~ € 21 347    "Finanszírozás ~ Általános adatok
#>  3 https://www~ SUZUKI SW~ <NA>    € 13 283     <NA>            Általános adatok
#>  4 https://www~ PEUGEOT 2~ <NA>    € 15 873    "Finanszírozás ~ Általános adatok
#>  5 https://www~ OPEL COMB~ <NA>    € 11 483     <NA>            Általános adatok
#>  6 https://www~ OPEL INSI~ <NA>    € 18 271     <NA>            Általános adatok
#>  7 https://www~ OPEL ZAFI~ <NA>    € 22 879     <NA>            Általános adatok
#>  8 https://www~ SUZUKI VI~ <NA>    € 16 271     <NA>            Általános adatok
#>  9 https://www~ SUZUKI IG~ <NA>    € 13 307     <NA>            Általános adatok
#> 10 https://www~ CITROEN C~ 8 600 ~ € 23 597    "Finanszírozás ~ Általános adatok
#> # ... with 229 more rows, and 57 more variables: atveheto <chr>, evjarat <chr>,
#> #   allapot <chr>, kivitel <chr>, finanszirozas <chr>, finanszirozas_2 <chr>,
#> #   finanszirozas_tipusa_casco_val <chr>,
#> #   finanszirozas_tipusa_casco_nelkul <chr>, kezdoreszlet_casco_nelkul <chr>,
#> #   havi_reszlet_casco_nelkul <chr>, futamido_casco_nelkul <chr>,
#> #   garancia <chr>, garancia_2 <chr>, atrozsdasodasi_garancia <chr>,
#> #   szavatossagi_garancia <chr>, jarmu_adatok <chr>, ...
…
