Chapter 3 Ggplot | Data Analysis Coursebook
…
But in addition to having nicer graphics, there is a much more important reason why we use ggplot. The package is named after Leland Wilkinsons work Gramar of Graphics (hence gg), in which the essential structure of the ideal graphing algorithm was formulated. Since ggplot2 follows this principles, you will see that while there are many things to keep in mind, everything makes sense in it. Once you have mastered this material (and after some reading after that) you will be able to make any necessary diagrams[^My personal opinion is that creating simple and complex plots is the best way to understand your data and to make others watch your research.].

3.2 Intorduction to ggplot

Ggplot2 can be installed standalone, or this package is part of a “package collection” called tidyverse. I highly recommend you to always start your session with loading the tidyverse, since this collection contains many crucial function for data analyses. Thus, depending on whether the package is already downloaded, install install.packages ("tidyverse") or if this is not the first time you use tidyverse on your computer, then load the packages with library(tidyverse)[^Grading your homework I usually see that you type install.packages into the script and leave it there. This is probably the worst habbit you can have in R programming. In this way you will install the packages everytime you use that script. Remember, add library(tidyverse) to the first line in your code, and use install.packages.].

library(tidyverse)

With ggplot2 we get some additional data tables, for the sake of simplicity we now use diamonds of these. Let’s take a look at the structure of the nameplate:

diamonds
#> # A tibble: 53,940 x 10
#>    carat cut       color clarity depth table price     x     y     z
#>    <dbl> <ord>     <ord> <ord>   <dbl> <dbl> <int> <dbl> <dbl> <dbl>
#>  1  0.23 Ideal     E     SI2      61.5    55   326  3.95  3.98  2.43
#>  2  0.21 Premium   E     SI1      59.8    61   326  3.89  3.84  2.31
#>  3  0.23 Good      E     VS1      56.9    65   327  4.05  4.07  2.31
#>  4  0.29 Premium   I     VS2      62.4    58   334  4.2   4.23  2.63
#>  5  0.31 Good      J     SI2      63.3    58   335  4.34  4.35  2.75
#>  6  0.24 Very Good J     VVS2     62.8    57   336  3.94  3.96  2.48
#>  7  0.24 Very Good I     VVS1     62.3    57   336  3.95  3.98  2.47
#>  8  0.26 Very Good H     SI1      61.9    55   337  4.07  4.11  2.53
#>  9  0.22 Fair      E     VS2      65.1    61   337  3.87  3.78  2.49
#> 10  0.23 Very Good H     VS1      59.4    61   338  4     4.05  2.39
#> # ... with 53,930 more rows
…
bplot_output has an element named as out. This contains the values of those observations who are outliers based on boxplot. We can simply check if a given observation is in this vector and if it is, then we remove that observation [^It is always more complicated in real life tasks, but fine for now.]. Lets create a function for this step.

outlier_filter <- function(x) {
outlier_value <- boxplot(x, plot = FALSE)$out
x %in% outlier_value # returns TRUE if the given value is an outlier
}

diamonds %>% 
  filter(!outlier_filter(price)) # keep the observation if price is not an outlier
#> # A tibble: 50,402 x 10
#>    carat cut       color clarity depth table price     x     y     z
#>    <dbl> <ord>     <ord> <ord>   <dbl> <dbl> <int> <dbl> <dbl> <dbl>
#>  1  0.23 Ideal     E     SI2      61.5    55   326  3.95  3.98  2.43
#>  2  0.21 Premium   E     SI1      59.8    61   326  3.89  3.84  2.31
#>  3  0.23 Good      E     VS1      56.9    65   327  4.05  4.07  2.31
#>  4  0.29 Premium   I     VS2      62.4    58   334  4.2   4.23  2.63
#>  5  0.31 Good      J     SI2      63.3    58   335  4.34  4.35  2.75
#>  6  0.24 Very Good J     VVS2     62.8    57   336  3.94  3.96  2.48
#>  7  0.24 Very Good I     VVS1     62.3    57   336  3.95  3.98  2.47
#>  8  0.26 Very Good H     SI1      61.9    55   337  4.07  4.11  2.53
#>  9  0.22 Fair      E     VS2      65.1    61   337  3.87  3.78  2.49
#> 10  0.23 Very Good H     VS1      59.4    61   338  4     4.05  2.39
#> # ... with 50,392 more rows
…
Figure 3.14: Position_fill

For any kind of matrix you can use the geom_tile for creating heatmaps. Lets see the correlations!

diamonds %>% 
   select_if(is.numeric) # you can calculate cor only for numerical variables
#> # A tibble: 53,940 x 7
#>    carat depth table price     x     y     z
#>    <dbl> <dbl> <dbl> <int> <dbl> <dbl> <dbl>
#>  1  0.23  61.5    55   326  3.95  3.98  2.43
#>  2  0.21  59.8    61   326  3.89  3.84  2.31
#>  3  0.23  56.9    65   327  4.05  4.07  2.31
#>  4  0.29  62.4    58   334  4.2   4.23  2.63
#>  5  0.31  63.3    58   335  4.34  4.35  2.75
#>  6  0.24  62.8    57   336  3.94  3.96  2.48
#>  7  0.24  62.3    57   336  3.95  3.98  2.47
#>  8  0.26  61.9    55   337  4.07  4.11  2.53
#>  9  0.22  65.1    61   337  3.87  3.78  2.49
#> 10  0.23  59.4    61   338  4     4.05  2.39
#> # ... with 53,930 more rows
…
diamonds %>% 
   select_if(is.numeric) %>%  # you can calculate cor only for numerical variables
  cor() %>%  # correlation matrix
  data.frame() %>% 
  rownames_to_column(var = "X") %>% 
  pivot_longer(-X, names_to = "Y")
#> # A tibble: 49 x 3
#>    X     Y       value
#>    <chr> <chr>   <dbl>
#>  1 carat carat  1     
#>  2 carat depth  0.0282
#>  3 carat table  0.182 
#>  4 carat price  0.922 
#>  5 carat x      0.975 
#>  6 carat y      0.952 
#>  7 carat z      0.953 
#>  8 depth carat  0.0282
#>  9 depth depth  1     
#> 10 depth table -0.296 
#> # ... with 39 more rows
…
Figure 3.15: Heatmap

Lets see what to do with time-series data. We need some data for this from Eurostat.

eurostat::search_eurostat("employment")

unemployment_df <- eurostat::get_eurostat("enpe_lfsa_urgan")

unemployment_df
#> # A tibble: 726 x 6
#>    unit  sex   age    geo   time       values
#>    <chr> <chr> <chr>  <chr> <date>      <dbl>
#>  1 RT    F     Y15-24 AM    2019-01-01   34.4
#>  2 RT    F     Y15-24 AZ    2019-01-01   14.2
#>  3 RT    F     Y15-24 BY    2019-01-01    9.6
#>  4 RT    F     Y15-24 GE    2019-01-01   32.9
#>  5 RT    F     Y15-24 MD    2019-01-01    9.4
#>  6 RT    F     Y15-24 UA    2019-01-01   15.3
#>  7 RT    F     Y15-74 AM    2019-01-01   19.3
#>  8 RT    F     Y15-74 AZ    2019-01-01    5.7
#>  9 RT    F     Y15-74 BY    2019-01-01    3.2
#> 10 RT    F     Y15-74 GE    2019-01-01   10.1
#> # ... with 716 more rows

unemployment_df <- unemployment_df %>% 
  filter(sex == "T" & age == "Y15-74") %>% 
  mutate(time = lubridate::year(time)) %>% 
  select(geo, time, unemployment = values)

employment_df <- eurostat::get_eurostat("enpe_lfsa_ergan")

employment_df
#> # A tibble: 458 x 6
#>    unit  sex   age    geo   time       values
#>    <chr> <chr> <chr>  <chr> <date>      <dbl>
#>  1 RT    F     Y20-64 AM    2019-01-01   44.8
#>  2 RT    F     Y20-64 AZ    2019-01-01   70.9
#>  3 RT    F     Y20-64 BY    2019-01-01   77.4
#>  4 RT    F     Y20-64 GE    2019-01-01   58.3
#>  5 RT    F     Y20-64 MD    2019-01-01   46.8
#>  6 RT    F     Y20-64 UA    2019-01-01   61.6
#>  7 RT    M     Y20-64 AM    2019-01-01   66.6
#>  8 RT    M     Y20-64 AZ    2019-01-01   77.9
#>  9 RT    M     Y20-64 BY    2019-01-01   83  
#> 10 RT    M     Y20-64 GE    2019-01-01   72.3
#> # ... with 448 more rows
…
Figure 3.17: Two variables with two geom_line command

If we need legend:

df %>% 
  filter(geo == "GE") %>% 
  pivot_longer(employment:unemployment) # color based on the name
#> # A tibble: 30 x 4
#>    geo    time name         value
#>    <chr> <dbl> <chr>        <dbl>
#>  1 GE     2019 employment    65.1
#>  2 GE     2019 unemployment  11.6
#>  3 GE     2018 employment    64.9
#>  4 GE     2018 unemployment  12.7
#>  5 GE     2017 employment    65.3
#>  6 GE     2017 unemployment  13.9
#>  7 GE     2016 employment    65.5
#>  8 GE     2016 unemployment  14  
#>  9 GE     2015 employment    66.5
#> 10 GE     2015 unemployment  14.1
#> # ... with 20 more rows
…
