Chapter 5 Data imputation | Data Analysis Coursebook
…
Currently, all variable characters are type, so be sure to manipulate the data. Probably most columns are not needed. Lets create some new variables!

cars_data_df %>% 
  transmute(
    ad_title,
    url_to_cars,
    price = vetelar_eur, # translate the column names :)
    year = evjarat,
    weight = teljes_tomeg,
    n_doors = ajtok_szama,
    fuel = uzemanyag,
    gear = sebessegvalto_fajtaja,
    mileage = kilometerora_allasa
  )
#> # A tibble: 239 x 9
#>    ad_title      url_to_cars     price  year  weight n_doors fuel  gear  mileage
#>    <chr>         <chr>           <chr>  <chr> <chr>  <chr>   <chr> <chr> <chr>  
#>  1 SSANGYONG KO~ https://www.ha~ € 19 ~ 2021~ 2 010~ 5       Benz~ Manu~ 13 km  
#>  2 CITROEN GRAN~ https://www.ha~ € 21 ~ 2020~ 1 935~ 5       Benz~ Manu~ Nincs ~
#>  3 SUZUKI SWIFT~ https://www.ha~ € 13 ~ 2020  1 365~ 5       Hibr~ Manu~ Nincs ~
#>  4 PEUGEOT 208 ~ https://www.ha~ € 15 ~ 2021  1 595~ 5       Benz~ Manu~ 2 km   
#>  5 OPEL COMBO L~ https://www.ha~ € 11 ~ 2021  2 280~ 5       Benz~ Manu~ 2 km   
#>  6 OPEL INSIGNI~ https://www.ha~ € 18 ~ 2021  2 160~ 5       Benz~ Manu~ Nincs ~
#>  7 OPEL ZAFIRA ~ https://www.ha~ € 22 ~ 2021  2 635~ 4       Dízel Manu~ Nincs ~
#>  8 SUZUKI VITAR~ https://www.ha~ € 16 ~ 2021  1 770~ 5       Benz~ Manu~ 1 km   
#>  9 SUZUKI IGNIS~ https://www.ha~ € 13 ~ 2021  1 330~ 5       Benz~ Manu~ Nincs ~
#> 10 CITROEN C5 A~ https://www.ha~ € 23 ~ 2021~ 1 940~ 5       Benz~ Manu~ 2 km   
#> # ... with 229 more rows

The transmute function is like applying theselect and mutate functions at the same time. We can create new variables with it, but only those that are defined in it will remain. However, it is worth cleaning the data in one step here.

cars_data_df %>% 
  transmute(
    ad_title,
    price = str_remove_all(vetelar_eur, "\\D"), # remove non-digit chr
    year = gsub("/.*", "", evjarat), # remove after / sign
    weight = str_remove_all(teljes_tomeg, "\\D"), # remove non-digit chr
    n_doors = str_remove_all(ajtok_szama, "\\D"), # remove non-digit chr
    fuel = uzemanyag, # fuel type
    gear = str_detect(sebessegvalto_fajtaja, "Manuális"), # is manual mentioned?
    mileage = str_remove_all(kilometerora_allasa, "\\D") # remove non-digit chr
  )
#> # A tibble: 239 x 8
#>    ad_title                       price year  weight n_doors fuel  gear  mileage
#>    <chr>                          <chr> <chr> <chr>  <chr>   <chr> <lgl> <chr>  
#>  1 SSANGYONG KORANDO 1.5 Turbo e~ 19204 2021  2010   5       Benz~ TRUE  "13"   
#>  2 CITROEN GRAND C4 SPACETOURER ~ 21347 2020  1935   5       Benz~ TRUE  ""     
#>  3 SUZUKI SWIFT 1.2 Dualjet Hybr~ 13283 2020  1365   5       Hibr~ TRUE  ""     
#>  4 PEUGEOT 208 1.2 PureTech Acti~ 15873 2021  1595   5       Benz~ TRUE  "2"    
#>  5 OPEL COMBO Life 1.2 T Enjoy 2~ 11483 2021  2280   5       Benz~ TRUE  "2"    
#>  6 OPEL INSIGNIA Grand Sport 1.4~ 18271 2021  2160   5       Benz~ TRUE  ""     
#>  7 OPEL ZAFIRA LIFE 1.5 D Busine~ 22879 2021  2635   4       Dízel TRUE  ""     
#>  8 SUZUKI VITARA 1.4 Hybrid GL+   16271 2021  1770   5       Benz~ TRUE  "1"    
#>  9 SUZUKI IGNIS 1.2 Hybrid GL+    13307 2021  1330   5       Benz~ TRUE  ""     
#> 10 CITROEN C5 AIRCROSS 1.2 PureT~ 23597 2021  1940   5       Benz~ TRUE  "2"    
#> # ... with 229 more rows
…
df <- cars_data_df %>% 
  transmute(
    ad_title,
    price = str_remove_all(vetelar_eur, "\\D"), # remove non-digit chr
    year = gsub("/.*", "", evjarat), # remove after / sign
    weight = str_remove_all(teljes_tomeg, "\\D"), # remove non-digit chr
    n_doors = str_remove_all(ajtok_szama, "\\D"), # remove non-digit chr
    fuel = uzemanyag, # fuel type
    gear = str_detect(sebessegvalto_fajtaja, "Manuális"), # is manual mentioned?
    mileage = str_remove_all(kilometerora_allasa, "\\D") # remove non-digit chr
  ) %>% 
  mutate_at(vars("price", "year", "weight", "n_doors", "mileage"), as.numeric)

df
#> # A tibble: 239 x 8
#>    ad_title                       price  year weight n_doors fuel  gear  mileage
#>    <chr>                          <dbl> <dbl>  <dbl>   <dbl> <chr> <lgl>   <dbl>
#>  1 SSANGYONG KORANDO 1.5 Turbo e~ 19204  2021   2010       5 Benz~ TRUE       13
#>  2 CITROEN GRAND C4 SPACETOURER ~ 21347  2020   1935       5 Benz~ TRUE       NA
#>  3 SUZUKI SWIFT 1.2 Dualjet Hybr~ 13283  2020   1365       5 Hibr~ TRUE       NA
#>  4 PEUGEOT 208 1.2 PureTech Acti~ 15873  2021   1595       5 Benz~ TRUE        2
#>  5 OPEL COMBO Life 1.2 T Enjoy 2~ 11483  2021   2280       5 Benz~ TRUE        2
#>  6 OPEL INSIGNIA Grand Sport 1.4~ 18271  2021   2160       5 Benz~ TRUE       NA
#>  7 OPEL ZAFIRA LIFE 1.5 D Busine~ 22879  2021   2635       4 Dízel TRUE       NA
#>  8 SUZUKI VITARA 1.4 Hybrid GL+   16271  2021   1770       5 Benz~ TRUE        1
#>  9 SUZUKI IGNIS 1.2 Hybrid GL+    13307  2021   1330       5 Benz~ TRUE       NA
#> 10 CITROEN C5 AIRCROSS 1.2 PureT~ 23597  2021   1940       5 Benz~ TRUE        2
#> # ... with 229 more rows
…
I suggest that we arrange the table according to the existence of the deficit at this time.

df %>% 
  arrange(!is.na(mileage)) # rows w missing mileage 1st
#> # A tibble: 239 x 8
#>    ad_title                      price  year weight n_doors fuel   gear  mileage
#>    <chr>                         <dbl> <dbl>  <dbl>   <dbl> <chr>  <lgl>   <dbl>
#>  1 CITROEN GRAND C4 SPACETOURER~ 21347  2020   1935       5 Benzin TRUE       NA
#>  2 SUZUKI SWIFT 1.2 Dualjet Hyb~ 13283  2020   1365       5 Hibrid TRUE       NA
#>  3 OPEL INSIGNIA Grand Sport 1.~ 18271  2021   2160       5 Benzin TRUE       NA
#>  4 OPEL ZAFIRA LIFE 1.5 D Busin~ 22879  2021   2635       4 Dízel  TRUE       NA
#>  5 SUZUKI IGNIS 1.2 Hybrid GL+   13307  2021   1330       5 Benzin TRUE       NA
#>  6 OPEL CROSSLAND 1.2 Edition    13234  2021   1690       5 Benzin TRUE       NA
#>  7 BMW I3 120Ah (Automata) ZÖLD~ 38207  2021   1710       5 Elekt~ FALSE      NA
#>  8 OPEL MOKKA 1.2 T Edition CÉG~ 14792  2021   1700       5 Benzin TRUE       NA
#>  9 BMW 520d xDrive (Automata) M~ 62394  2021   2405       4 Dízel  FALSE      NA
#> 10 OPEL CORSA F 1.2 Edition CÉG~ 10739  2021   1550       5 Benzin TRUE       NA
#> # ... with 229 more rows

These are very new cars so our best assumption is that here the mileage is 0.

df %>% 
  arrange(!is.na(mileage)) %>%  # rows w missing mileage 1st
  replace_na(list(mileage = 0))
#> # A tibble: 239 x 8
#>    ad_title                      price  year weight n_doors fuel   gear  mileage
#>    <chr>                         <dbl> <dbl>  <dbl>   <dbl> <chr>  <lgl>   <dbl>
#>  1 CITROEN GRAND C4 SPACETOURER~ 21347  2020   1935       5 Benzin TRUE        0
#>  2 SUZUKI SWIFT 1.2 Dualjet Hyb~ 13283  2020   1365       5 Hibrid TRUE        0
#>  3 OPEL INSIGNIA Grand Sport 1.~ 18271  2021   2160       5 Benzin TRUE        0
#>  4 OPEL ZAFIRA LIFE 1.5 D Busin~ 22879  2021   2635       4 Dízel  TRUE        0
#>  5 SUZUKI IGNIS 1.2 Hybrid GL+   13307  2021   1330       5 Benzin TRUE        0
#>  6 OPEL CROSSLAND 1.2 Edition    13234  2021   1690       5 Benzin TRUE        0
#>  7 BMW I3 120Ah (Automata) ZÖLD~ 38207  2021   1710       5 Elekt~ FALSE       0
#>  8 OPEL MOKKA 1.2 T Edition CÉG~ 14792  2021   1700       5 Benzin TRUE        0
#>  9 BMW 520d xDrive (Automata) M~ 62394  2021   2405       4 Dízel  FALSE       0
#> 10 OPEL CORSA F 1.2 Edition CÉG~ 10739  2021   1550       5 Benzin TRUE        0
#> # ... with 229 more rows

In the case of weight it would be more reasonable to replace missing observations with the average.

df %>% 
  arrange(!is.na(weight)) %>%  # rows w missing weight 1st
  mutate(weight = ifelse(is.na(weight), mean(weight, na.rm = TRUE), weight))
#> # A tibble: 239 x 8
#>    ad_title                       price  year weight n_doors fuel  gear  mileage
#>    <chr>                          <dbl> <dbl>  <dbl>   <dbl> <chr> <lgl>   <dbl>
#>  1 MERCEDES-BENZ E 63 AMG 4 M S.~ 90517  2019  2099.       4 Benz~ FALSE   57000
#>  2 SSANGYONG KORANDO 1.5 Turbo e~ 19204  2021  2010        5 Benz~ TRUE       13
#>  3 CITROEN GRAND C4 SPACETOURER ~ 21347  2020  1935        5 Benz~ TRUE       NA
#>  4 SUZUKI SWIFT 1.2 Dualjet Hybr~ 13283  2020  1365        5 Hibr~ TRUE       NA
#>  5 PEUGEOT 208 1.2 PureTech Acti~ 15873  2021  1595        5 Benz~ TRUE        2
#>  6 OPEL COMBO Life 1.2 T Enjoy 2~ 11483  2021  2280        5 Benz~ TRUE        2
#>  7 OPEL INSIGNIA Grand Sport 1.4~ 18271  2021  2160        5 Benz~ TRUE       NA
#>  8 OPEL ZAFIRA LIFE 1.5 D Busine~ 22879  2021  2635        4 Dízel TRUE       NA
#>  9 SUZUKI VITARA 1.4 Hybrid GL+   16271  2021  1770        5 Benz~ TRUE        1
#> 10 SUZUKI IGNIS 1.2 Hybrid GL+    13307  2021  1330        5 Benz~ TRUE       NA
#> # ... with 229 more rows

The syntax used above works as follows: if NA, its value should be equal to the average value, else, it should be equal to itself. Although we could have switched to the median.

df %>% 
  arrange(!is.na(weight)) %>%  # rows w missing weight 1st
  mutate(weight = ifelse(is.na(weight), median(weight, na.rm = TRUE), weight))
#> # A tibble: 239 x 8
#>    ad_title                       price  year weight n_doors fuel  gear  mileage
#>    <chr>                          <dbl> <dbl>  <dbl>   <dbl> <chr> <lgl>   <dbl>
#>  1 MERCEDES-BENZ E 63 AMG 4 M S.~ 90517  2019  2068.       4 Benz~ FALSE   57000
#>  2 SSANGYONG KORANDO 1.5 Turbo e~ 19204  2021  2010        5 Benz~ TRUE       13
#>  3 CITROEN GRAND C4 SPACETOURER ~ 21347  2020  1935        5 Benz~ TRUE       NA
#>  4 SUZUKI SWIFT 1.2 Dualjet Hybr~ 13283  2020  1365        5 Hibr~ TRUE       NA
#>  5 PEUGEOT 208 1.2 PureTech Acti~ 15873  2021  1595        5 Benz~ TRUE        2
#>  6 OPEL COMBO Life 1.2 T Enjoy 2~ 11483  2021  2280        5 Benz~ TRUE        2
#>  7 OPEL INSIGNIA Grand Sport 1.4~ 18271  2021  2160        5 Benz~ TRUE       NA
#>  8 OPEL ZAFIRA LIFE 1.5 D Busine~ 22879  2021  2635        4 Dízel TRUE       NA
#>  9 SUZUKI VITARA 1.4 Hybrid GL+   16271  2021  1770        5 Benz~ TRUE        1
#> 10 SUZUKI IGNIS 1.2 Hybrid GL+    13307  2021  1330        5 Benz~ TRUE       NA
#> # ... with 229 more rows

5.3 Advanced methods

Is this kind of imputation correct for the other numerical variables as well? Then perform the operation on all numeric columns.

df %>% 
  arrange(!is.na(weight)) %>%  # rows w missing weight 1st
  mutate_if(is.numeric, ~ ifelse(is.na(.), median(., na.rm = TRUE), .))
#> # A tibble: 239 x 8
#>    ad_title                       price  year weight n_doors fuel  gear  mileage
#>    <chr>                          <dbl> <dbl>  <dbl>   <dbl> <chr> <lgl>   <dbl>
#>  1 MERCEDES-BENZ E 63 AMG 4 M S.~ 90517  2019  2068.       4 Benz~ FALSE   57000
#>  2 SSANGYONG KORANDO 1.5 Turbo e~ 19204  2021  2010        5 Benz~ TRUE       13
#>  3 CITROEN GRAND C4 SPACETOURER ~ 21347  2020  1935        5 Benz~ TRUE    31431
#>  4 SUZUKI SWIFT 1.2 Dualjet Hybr~ 13283  2020  1365        5 Hibr~ TRUE    31431
#>  5 PEUGEOT 208 1.2 PureTech Acti~ 15873  2021  1595        5 Benz~ TRUE        2
#>  6 OPEL COMBO Life 1.2 T Enjoy 2~ 11483  2021  2280        5 Benz~ TRUE        2
#>  7 OPEL INSIGNIA Grand Sport 1.4~ 18271  2021  2160        5 Benz~ TRUE    31431
#>  8 OPEL ZAFIRA LIFE 1.5 D Busine~ 22879  2021  2635        4 Dízel TRUE    31431
#>  9 SUZUKI VITARA 1.4 Hybrid GL+   16271  2021  1770        5 Benz~ TRUE        1
#> 10 SUZUKI IGNIS 1.2 Hybrid GL+    13307  2021  1330        5 Benz~ TRUE    31431
#> # ... with 229 more rows
…
#>   3   2  year  weight  gear  mileage
#>   3   3  year  weight  gear  mileage
#>   3   4  year  weight  gear  mileage
#>   3   5  year  weight  gear  mileage
#>   4   1  year  weight  gear  mileage
#>   4   2  year  weight  gear  mileage
#>   4   3  year  weight  gear  mileage
#>   4   4  year  weight  gear  mileage
#>   4   5  year  weight  gear  mileage
#>   5   1  year  weight  gear  mileage
#>   5   2  year  weight  gear  mileage
#>   5   3  year  weight  gear  mileage
#>   5   4  year  weight  gear  mileage
#>   5   5  year  weight  gear  mileage
#> # A tibble: 239 x 8
#>    ad_title                       price  year weight n_doors fuel   gear mileage
#>    <chr>                          <dbl> <dbl>  <dbl>   <dbl> <chr> <dbl>   <dbl>
#>  1 SSANGYONG KORANDO 1.5 Turbo e~ 19204  2021   2010       5 Benz~     1      13
#>  2 CITROEN GRAND C4 SPACETOURER ~ 21347  2020   1935       5 Benz~     1      13
#>  3 SUZUKI SWIFT 1.2 Dualjet Hybr~ 13283  2020   1365       5 Hibr~     1    6050
#>  4 PEUGEOT 208 1.2 PureTech Acti~ 15873  2021   1595       5 Benz~     1       2
#>  5 OPEL COMBO Life 1.2 T Enjoy 2~ 11483  2021   2280       5 Benz~     1       2
#>  6 OPEL INSIGNIA Grand Sport 1.4~ 18271  2021   2160       5 Benz~     1   43380
#>  7 OPEL ZAFIRA LIFE 1.5 D Busine~ 22879  2021   2635       4 Dízel     1   89576
#>  8 SUZUKI VITARA 1.4 Hybrid GL+   16271  2021   1770       5 Benz~     1       1
#>  9 SUZUKI IGNIS 1.2 Hybrid GL+    13307  2021   1330       5 Benz~     1   17000
#> 10 CITROEN C5 AIRCROSS 1.2 PureT~ 23597  2021   1940       5 Benz~     1       2
#> # ... with 229 more rows
…
